00008354
8354:		e3a00000
8358:		e3a01001
835c:		e3a02002
8360:		e3a03003
8364:		e3a04004
8368:		e3a05005
836c:		e3a06006
8370:		e3a07007
8374:		e3a08008
8378:		e3a09009
837c:		e3a0a00a
8380:		e3a0b00b
8384:		ef000000
8384:		e3a0c00c
8388:		e3a0d00d
838c:		e3a0e00e
8390:		e3a0e000
8394:		e3a0e007
8398:		ef000000
